info face="HeadintheClouds" size=33 bold=0 italic=0 charset="" unicode=1 stretchH=100 smooth=1 aa=1 padding=0,0,0,0 spacing=1,1 outline=0
common lineHeight=33 base=26 scaleW=128 scaleH=128 pages=1 packed=0 alphaChnl=0 redChnl=3 greenChnl=3 blueChnl=3
page id=0 file="font33_0.tga"
chars count=40
char id=32   x=24    y=24    width=3     height=1     xoffset=-1    yoffset=32    xadvance=14    page=0  chnl=15
char id=44   x=78    y=104   width=7     height=7     xoffset=0     yoffset=21    xadvance=7     page=0  chnl=15
char id=48   x=17    y=108   width=14    height=17    xoffset=0     yoffset=8     xadvance=13    page=0  chnl=15
char id=49   x=115   y=22    width=12    height=19    xoffset=0     yoffset=5     xadvance=12    page=0  chnl=15
char id=50   x=70    y=65    width=14    height=19    xoffset=0     yoffset=4     xadvance=14    page=0  chnl=15
char id=51   x=21    y=26    width=18    height=21    xoffset=0     yoffset=2     xadvance=17    page=0  chnl=15
char id=52   x=98    y=23    width=16    height=20    xoffset=0     yoffset=3     xadvance=15    page=0  chnl=15
char id=53   x=40    y=24    width=17    height=21    xoffset=0     yoffset=2     xadvance=17    page=0  chnl=15
char id=54   x=53    y=66    width=16    height=19    xoffset=0     yoffset=4     xadvance=16    page=0  chnl=15
char id=55   x=58    y=24    width=19    height=20    xoffset=0     yoffset=2     xadvance=18    page=0  chnl=15
char id=56   x=47    y=0     width=18    height=23    xoffset=0     yoffset=0     xadvance=17    page=0  chnl=15
char id=57   x=78    y=23    width=19    height=20    xoffset=0     yoffset=6     xadvance=19    page=0  chnl=15
char id=58   x=116   y=83    width=8     height=14    xoffset=0     yoffset=10    xadvance=7     page=0  chnl=15
char id=63   x=88    y=0     width=14    height=22    xoffset=0     yoffset=2     xadvance=14    page=0  chnl=15
char id=65   x=42    y=46    width=22    height=19    xoffset=0     yoffset=4     xadvance=22    page=0  chnl=15
char id=66   x=0     y=48    width=15    height=20    xoffset=0     yoffset=3     xadvance=15    page=0  chnl=15
char id=67   x=87    y=44    width=20    height=19    xoffset=0     yoffset=3     xadvance=20    page=0  chnl=15
char id=68   x=78    y=85    width=14    height=18    xoffset=0     yoffset=3     xadvance=14    page=0  chnl=15
char id=69   x=110   y=64    width=16    height=18    xoffset=0     yoffset=3     xadvance=15    page=0  chnl=15
char id=70   x=62    y=86    width=15    height=18    xoffset=0     yoffset=2     xadvance=15    page=0  chnl=15
char id=71   x=108   y=44    width=19    height=19    xoffset=0     yoffset=1     xadvance=19    page=0  chnl=15
char id=72   x=0     y=89    width=20    height=18    xoffset=0     yoffset=2     xadvance=19    page=0  chnl=15
char id=73   x=32    y=107   width=13    height=17    xoffset=0     yoffset=2     xadvance=12    page=0  chnl=15
char id=74   x=60    y=107   width=17    height=16    xoffset=0     yoffset=3     xadvance=16    page=0  chnl=15
char id=75   x=103   y=0     width=21    height=21    xoffset=0     yoffset=3     xadvance=21    page=0  chnl=15
char id=76   x=0     y=108   width=16    height=17    xoffset=0     yoffset=5     xadvance=16    page=0  chnl=15
char id=77   x=16    y=48    width=25    height=19    xoffset=0     yoffset=3     xadvance=24    page=0  chnl=15
char id=78   x=21    y=88    width=20    height=18    xoffset=0     yoffset=3     xadvance=19    page=0  chnl=15
char id=79   x=19    y=68    width=16    height=19    xoffset=0     yoffset=2     xadvance=16    page=0  chnl=15
char id=80   x=46    y=107   width=13    height=17    xoffset=0     yoffset=2     xadvance=13    page=0  chnl=15
char id=81   x=0     y=26    width=20    height=21    xoffset=0     yoffset=2     xadvance=19    page=0  chnl=15
char id=82   x=42    y=88    width=19    height=18    xoffset=0     yoffset=1     xadvance=18    page=0  chnl=15
char id=83   x=36    y=68    width=16    height=19    xoffset=0     yoffset=1     xadvance=16    page=0  chnl=15
char id=84   x=0     y=69    width=18    height=19    xoffset=0     yoffset=1     xadvance=18    page=0  chnl=15
char id=85   x=93    y=84    width=22    height=17    xoffset=0     yoffset=7     xadvance=22    page=0  chnl=15
char id=86   x=65    y=45    width=21    height=19    xoffset=0     yoffset=5     xadvance=20    page=0  chnl=15
char id=87   x=85    y=65    width=24    height=18    xoffset=0     yoffset=5     xadvance=23    page=0  chnl=15
char id=88   x=0     y=0     width=23    height=25    xoffset=0     yoffset=2     xadvance=23    page=0  chnl=15
char id=89   x=66    y=0     width=21    height=22    xoffset=0     yoffset=1     xadvance=20    page=0  chnl=15
char id=90   x=24    y=0     width=22    height=23    xoffset=0     yoffset=3     xadvance=21    page=0  chnl=15
